{
	"page": 1,
	"total_results": 2031,
	"total_pages": 102,
	"results": [{
		"popularity": 16.145,
		"id": 566222,
		"video": false,
		"vote_count": 99,
		"vote_average": 7.1,
		"title": "The Great Hack",
		"release_date": "2019-01-26",
		"original_language": "en",
		"original_title": "The Great Hack",
		"genre_ids": [99],
		"backdrop_path": "\/mGyMkoip5CpfcfNNQFIiuoIQkKb.jpg",
		"adult": false,
		"overview": "Data—arguably the world’s most valuable asset—is being weaponized to wage cultural and political wars. The dark world of data exploitation is uncovered through the unpredictable, personal journeys of players on different sides of the explosive Cambridge Analytica\/Facebook data story.",
		"poster_path": "\/uIrGgUzasEUA7v8uChRhUUFzLwE.jpg"
	}, {
		"popularity": 12.502,
		"id": 64682,
		"video": false,
		"vote_count": 7368,
		"vote_average": 7.4,
		"title": "The Great Gatsby",
		"release_date": "2013-05-10",
		"original_language": "en",
		"original_title": "The Great Gatsby",
		"genre_ids": [18, 10749],
		"backdrop_path": "\/2vhFNuYW4ukV1pZ96f5Sgy5lpR2.jpg",
		"adult": false,
		"overview": "An adaptation of F. Scott Fitzgerald's Long Island-set novel, where Midwesterner Nick Carraway is lured into the lavish world of his neighbor, Jay Gatsby. Soon enough, however, Carraway will see through the cracks of Gatsby's nouveau riche existence, where obsession, madness, and tragedy await.",
		"poster_path": "\/oJpOYPpVWyPeunGbbDGH1KFvea0.jpg"
	}, {
		"popularity": 12.647,
		"vote_count": 2855,
		"video": false,
		"poster_path": "\/p70dq1YxabemdZDm5K6Q8G10wSn.jpg",
		"id": 311324,
		"adult": false,
		"backdrop_path": "\/rym1ecQJVj1NhZnigRePtiusorF.jpg",
		"original_language": "en",
		"original_title": "The Great Wall",
		"genre_ids": [28, 12, 14],
		"title": "The Great Wall",
		"vote_average": 5.8,
		"overview": "European mercenaries searching for black powder become embroiled in the defense of the Great Wall of China against a horde of monstrous creatures.",
		"release_date": "2017-02-17"
    }]
}